\relax 
\citation{mulyani2017metode}
\@writefile{toc}{\contentsline {chapter}{\numberline {V}ANALISIS DAN PERANCANGAN}{13}\protected@file@percent }
\@writefile{lof}{\addvspace {10\p@ }}
\@writefile{lot}{\addvspace {10\p@ }}
\@writefile{toc}{\contentsline {section}{\numberline {5.1}Analisis}{13}\protected@file@percent }
\@writefile{toc}{\contentsline {paragraph}{}{13}\protected@file@percent }
\@writefile{toc}{\contentsline {subsection}{\numberline {5.1.1}Analisis Arsitektur yang Sedang Berjalan}{13}\protected@file@percent }
\@writefile{toc}{\contentsline {paragraph}{}{13}\protected@file@percent }
\@writefile{lof}{\contentsline {figure}{\numberline {V.1}{\ignorespaces Arsitektur Website D'health}}{13}\protected@file@percent }
\newlabel{ArsitekturSaatIni}{{V.1}{13}}
\@writefile{toc}{\contentsline {subsection}{\numberline {5.1.2}Analisis Arsitektur yang Akan Dibangun}{13}\protected@file@percent }
\@writefile{toc}{\contentsline {paragraph}{}{13}\protected@file@percent }
\@writefile{lof}{\contentsline {figure}{\numberline {V.2}{\ignorespaces Arsitektur yang akan dibangun pada Website D'health}}{14}\protected@file@percent }
\newlabel{ArsitekturSelanjutnya}{{V.2}{14}}
\@writefile{toc}{\contentsline {subsection}{\numberline {5.1.3}Analisis Kebutuhan Aplikasi}{14}\protected@file@percent }
\@writefile{toc}{\contentsline {paragraph}{}{14}\protected@file@percent }
\@writefile{lot}{\contentsline {table}{\numberline {V.1}{\ignorespaces Deskripsi Kebutuhan Minumum Perangkat Keras}}{14}\protected@file@percent }
\newlabel{table2}{{V.1}{14}}
\@writefile{lot}{\contentsline {table}{\numberline {V.2}{\ignorespaces Deskripsi Kebutuhan Minumum Perangkat Lunak}}{15}\protected@file@percent }
\newlabel{table1}{{V.2}{15}}
\@writefile{toc}{\contentsline {section}{\numberline {5.2}Perancangan UML}{15}\protected@file@percent }
\@writefile{toc}{\contentsline {subsection}{\numberline {5.2.1}Usecase Diagram}{15}\protected@file@percent }
\@writefile{toc}{\contentsline {paragraph}{}{15}\protected@file@percent }
\@writefile{toc}{\contentsline {subsubsection}{\numberline {5.2.1.1}Definisi Aktor}{15}\protected@file@percent }
\@writefile{toc}{\contentsline {paragraph}{}{15}\protected@file@percent }
\@writefile{lot}{\contentsline {table}{\numberline {V.3}{\ignorespaces Definisi Aktor pada Sistem}}{15}\protected@file@percent }
\newlabel{DefAktor}{{V.3}{15}}
\@writefile{toc}{\contentsline {subsubsection}{\numberline {5.2.1.2}Definisi Usecase}{15}\protected@file@percent }
\@writefile{toc}{\contentsline {paragraph}{}{15}\protected@file@percent }
\@writefile{lot}{\contentsline {table}{\numberline {V.4}{\ignorespaces Definisi Usecase pada Sistem}}{15}\protected@file@percent }
\newlabel{DefUsecase}{{V.4}{15}}
\@writefile{toc}{\contentsline {subsubsection}{\numberline {5.2.1.3}Skenario Usecase}{15}\protected@file@percent }
\@writefile{toc}{\contentsline {paragraph}{}{15}\protected@file@percent }
\@writefile{lof}{\contentsline {figure}{\numberline {V.3}{\ignorespaces Usecae Diagram pada Website D'health}}{16}\protected@file@percent }
\newlabel{Usecase}{{V.3}{16}}
\@writefile{lot}{\contentsline {table}{\numberline {V.5}{\ignorespaces Skenario Usecase Melihat Home}}{17}\protected@file@percent }
\newlabel{SkeHome}{{V.5}{17}}
\@writefile{lot}{\contentsline {table}{\numberline {V.6}{\ignorespaces Skenario Usecase Melihat Produk}}{17}\protected@file@percent }
\newlabel{SkeProduct}{{V.6}{17}}
\@writefile{lot}{\contentsline {table}{\numberline {V.7}{\ignorespaces Skenario Usecase Melihat Fitur}}{17}\protected@file@percent }
\newlabel{SkeFeature}{{V.7}{17}}
\@writefile{lot}{\contentsline {table}{\numberline {V.8}{\ignorespaces Skenario Usecase Melihat \textit  {Knowledge Base}}}{18}\protected@file@percent }
\newlabel{SkePmk}{{V.8}{18}}
\@writefile{lot}{\contentsline {table}{\numberline {V.9}{\ignorespaces Skenario Usecase Melihat Kontak}}{18}\protected@file@percent }
\newlabel{SkeContact}{{V.9}{18}}
\@writefile{toc}{\contentsline {subsection}{\numberline {5.2.2}Class Diagram}{18}\protected@file@percent }
\@writefile{toc}{\contentsline {paragraph}{}{18}\protected@file@percent }
\@writefile{toc}{\contentsline {subsection}{\numberline {5.2.3}Sequence Diagram}{18}\protected@file@percent }
\@writefile{toc}{\contentsline {paragraph}{}{18}\protected@file@percent }
\@writefile{toc}{\contentsline {subsubsection}{\numberline {5.2.3.1}Sequence Diagram Melihat Halaman Home}{18}\protected@file@percent }
\@writefile{toc}{\contentsline {paragraph}{}{18}\protected@file@percent }
\@writefile{lof}{\contentsline {figure}{\numberline {V.4}{\ignorespaces Class Diagram Website D'health}}{19}\protected@file@percent }
\newlabel{ClassD}{{V.4}{19}}
\@writefile{toc}{\contentsline {subsubsection}{\numberline {5.2.3.2}Sequence Diagram Melihat Halaman Produk}{19}\protected@file@percent }
\@writefile{toc}{\contentsline {paragraph}{}{19}\protected@file@percent }
\@writefile{toc}{\contentsline {subsubsection}{\numberline {5.2.3.3}Sequence Diagram Melihat Halaman Fitur}{19}\protected@file@percent }
\@writefile{toc}{\contentsline {paragraph}{}{19}\protected@file@percent }
\@writefile{toc}{\contentsline {subsubsection}{\numberline {5.2.3.4}Sequence Diagram Melihat Halaman Knowledge Base}{19}\protected@file@percent }
\@writefile{toc}{\contentsline {paragraph}{}{19}\protected@file@percent }
\@writefile{toc}{\contentsline {subsubsection}{\numberline {5.2.3.5}Sequence Diagram Melihat Halaman Kontak}{19}\protected@file@percent }
\@writefile{toc}{\contentsline {paragraph}{}{19}\protected@file@percent }
\@writefile{lof}{\contentsline {figure}{\numberline {V.5}{\ignorespaces Sequence Diagram Melihat Halaman Home \textit  {website} D'health}}{20}\protected@file@percent }
\newlabel{SeqHome}{{V.5}{20}}
\@writefile{toc}{\contentsline {subsection}{\numberline {5.2.4}Activity Diagram}{20}\protected@file@percent }
\@writefile{toc}{\contentsline {paragraph}{}{20}\protected@file@percent }
\@writefile{toc}{\contentsline {subsubsection}{\numberline {5.2.4.1}Activity Diagram Melihat Halaman Home}{20}\protected@file@percent }
\@writefile{toc}{\contentsline {paragraph}{}{20}\protected@file@percent }
\@writefile{lof}{\contentsline {figure}{\numberline {V.6}{\ignorespaces Sequence Diagram Melihat Halaman Produk \textit  {website} D'health}}{21}\protected@file@percent }
\newlabel{SeqProduct}{{V.6}{21}}
\@writefile{toc}{\contentsline {subsubsection}{\numberline {5.2.4.2}Activity Diagram Melihat Halaman Produk}{21}\protected@file@percent }
\@writefile{toc}{\contentsline {paragraph}{}{21}\protected@file@percent }
\@writefile{toc}{\contentsline {subsubsection}{\numberline {5.2.4.3}Activity Diagram Melihat Halaman Fitur}{21}\protected@file@percent }
\@writefile{toc}{\contentsline {paragraph}{}{21}\protected@file@percent }
\@writefile{toc}{\contentsline {subsubsection}{\numberline {5.2.4.4}Activity Diagram Melihat Halaman Kontak}{21}\protected@file@percent }
\@writefile{toc}{\contentsline {paragraph}{}{21}\protected@file@percent }
\@writefile{toc}{\contentsline {subsection}{\numberline {5.2.5}Collaboration Diagram}{21}\protected@file@percent }
\@writefile{toc}{\contentsline {paragraph}{}{21}\protected@file@percent }
\@writefile{lof}{\contentsline {figure}{\numberline {V.7}{\ignorespaces Sequence Diagram Melihat Halaman Fitur \textit  {website} D'health}}{22}\protected@file@percent }
\newlabel{SeqFeatures}{{V.7}{22}}
\@writefile{toc}{\contentsline {subsubsection}{\numberline {5.2.5.1}Collaboration Diagram Melihat Halaman Home}{22}\protected@file@percent }
\@writefile{toc}{\contentsline {paragraph}{}{22}\protected@file@percent }
\@writefile{toc}{\contentsline {subsubsection}{\numberline {5.2.5.2}Collaboration Diagram Melihat Halaman Prouk}{22}\protected@file@percent }
\@writefile{toc}{\contentsline {paragraph}{}{22}\protected@file@percent }
\@writefile{toc}{\contentsline {subsubsection}{\numberline {5.2.5.3}Collaboration Diagram Melihat Halaman Fitur}{22}\protected@file@percent }
\@writefile{toc}{\contentsline {paragraph}{}{22}\protected@file@percent }
\@writefile{toc}{\contentsline {subsubsection}{\numberline {5.2.5.4}Collaboration Diagram Melihat Halaman \textit  {Knowledge Base}}{22}\protected@file@percent }
\@writefile{toc}{\contentsline {paragraph}{}{22}\protected@file@percent }
\@writefile{toc}{\contentsline {subsubsection}{\numberline {5.2.5.5}Collaboration Diagram Melihat Halaman Kontak}{22}\protected@file@percent }
\@writefile{toc}{\contentsline {paragraph}{}{22}\protected@file@percent }
\@writefile{lof}{\contentsline {figure}{\numberline {V.8}{\ignorespaces Sequence Diagram Melihat Halaman Knowledge Base \textit  {website} D'health}}{23}\protected@file@percent }
\newlabel{SeqKB}{{V.8}{23}}
\@writefile{toc}{\contentsline {subsection}{\numberline {5.2.6}Statechart Diagram}{23}\protected@file@percent }
\@writefile{toc}{\contentsline {paragraph}{}{23}\protected@file@percent }
\@writefile{toc}{\contentsline {subsubsection}{\numberline {5.2.6.1}Statechart Diagram Melihat Halaman Home}{23}\protected@file@percent }
\@writefile{toc}{\contentsline {paragraph}{}{23}\protected@file@percent }
\@writefile{toc}{\contentsline {subsubsection}{\numberline {5.2.6.2}Statechart Diagram Melihat Halaman Produk}{23}\protected@file@percent }
\@writefile{toc}{\contentsline {paragraph}{}{23}\protected@file@percent }
\@writefile{toc}{\contentsline {subsubsection}{\numberline {5.2.6.3}Statechart Diagram Melihat Halaman Fitur}{23}\protected@file@percent }
\@writefile{toc}{\contentsline {paragraph}{}{23}\protected@file@percent }
\@writefile{lof}{\contentsline {figure}{\numberline {V.9}{\ignorespaces Sequence Diagram Melihat Halaman Kontak \textit  {website} D'health}}{24}\protected@file@percent }
\newlabel{SeqContact}{{V.9}{24}}
\@writefile{toc}{\contentsline {subsubsection}{\numberline {5.2.6.4}Statechart Diagram Melihat Halaman \textit  {Knowledge Base}}{24}\protected@file@percent }
\@writefile{toc}{\contentsline {paragraph}{}{24}\protected@file@percent }
\@writefile{toc}{\contentsline {subsubsection}{\numberline {5.2.6.5}Statechart Diagram Melihat Halaman Kontak}{24}\protected@file@percent }
\@writefile{toc}{\contentsline {paragraph}{}{24}\protected@file@percent }
\@writefile{toc}{\contentsline {subsection}{\numberline {5.2.7}Perancangan Antar Muka Sistem}{24}\protected@file@percent }
\@writefile{toc}{\contentsline {paragraph}{}{24}\protected@file@percent }
\@writefile{toc}{\contentsline {subsubsection}{\numberline {5.2.7.1}Perancangan Antar Muka Halaman Home}{24}\protected@file@percent }
\@writefile{toc}{\contentsline {paragraph}{}{24}\protected@file@percent }
\@writefile{toc}{\contentsline {subsubsection}{\numberline {5.2.7.2}Perancangan Antar Muka Halaman Produk}{24}\protected@file@percent }
\@writefile{toc}{\contentsline {paragraph}{}{24}\protected@file@percent }
\@writefile{lof}{\contentsline {figure}{\numberline {V.10}{\ignorespaces Activity Diagram Melihat Halaman Home \textit  {website} D'health}}{25}\protected@file@percent }
\newlabel{ActivHome}{{V.10}{25}}
\@writefile{toc}{\contentsline {subsubsection}{\numberline {5.2.7.3}Perancangan Antar Muka Halaman Fitur}{25}\protected@file@percent }
\@writefile{toc}{\contentsline {paragraph}{}{25}\protected@file@percent }
\@writefile{toc}{\contentsline {subsubsection}{\numberline {5.2.7.4}Perancangan Antar Muka Halaman \textit  {Knowledge Base}}{25}\protected@file@percent }
\@writefile{toc}{\contentsline {paragraph}{}{25}\protected@file@percent }
\@writefile{toc}{\contentsline {subsubsection}{\numberline {5.2.7.5}Perancangan Antar Muka Halaman Kontak}{25}\protected@file@percent }
\@writefile{toc}{\contentsline {paragraph}{}{25}\protected@file@percent }
\@writefile{lof}{\contentsline {figure}{\numberline {V.11}{\ignorespaces Activity Diagram Melihat Halaman Produk \textit  {website} D'health}}{26}\protected@file@percent }
\newlabel{ActivProduct}{{V.11}{26}}
\@writefile{lof}{\contentsline {figure}{\numberline {V.12}{\ignorespaces Activity Diagram Melihat Halaman Fitur \textit  {website} D'health}}{26}\protected@file@percent }
\newlabel{ActivFeatures}{{V.12}{26}}
\@writefile{lof}{\contentsline {figure}{\numberline {V.13}{\ignorespaces Activity Diagram Melihat Halaman Kontak \textit  {website} D'health}}{27}\protected@file@percent }
\newlabel{ActivContact}{{V.13}{27}}
\@writefile{lof}{\contentsline {figure}{\numberline {V.14}{\ignorespaces Collaboration Diagram Melihat Halaman Home \textit  {website} D'health}}{28}\protected@file@percent }
\newlabel{CommunicationDiagramHomePages}{{V.14}{28}}
\@writefile{lof}{\contentsline {figure}{\numberline {V.15}{\ignorespaces Collaboration Diagram Melihat Halaman Prouk \textit  {website} D'health}}{29}\protected@file@percent }
\newlabel{CommunicationDiagramProductPage}{{V.15}{29}}
\@writefile{lof}{\contentsline {figure}{\numberline {V.16}{\ignorespaces Collaboration Diagram Melihat Halaman Fitur \textit  {website} D'health}}{29}\protected@file@percent }
\newlabel{CommunicationDiagramFeatruePages}{{V.16}{29}}
\@writefile{lof}{\contentsline {figure}{\numberline {V.17}{\ignorespaces Collaboration Diagram Melihat Halaman \textit  {Knowledge Base} \textit  {website} D'health}}{30}\protected@file@percent }
\newlabel{CommunicationDiagramKnowledgeBasePage}{{V.17}{30}}
\@writefile{lof}{\contentsline {figure}{\numberline {V.18}{\ignorespaces Collaboration Diagram Melihat Halaman Kontak \textit  {website} D'health}}{30}\protected@file@percent }
\newlabel{CommunicationDiagramContactPage}{{V.18}{30}}
\@writefile{lof}{\contentsline {figure}{\numberline {V.19}{\ignorespaces Statechart Diagram Melihat Halaman Home \textit  {website} D'health}}{31}\protected@file@percent }
\newlabel{Home}{{V.19}{31}}
\@writefile{lof}{\contentsline {figure}{\numberline {V.20}{\ignorespaces Statechart Diagram Melihat Halaman Produk \textit  {website} D'health}}{31}\protected@file@percent }
\newlabel{Product}{{V.20}{31}}
\@writefile{lof}{\contentsline {figure}{\numberline {V.21}{\ignorespaces Statechart Diagram Melihat Halaman Fitur \textit  {website} D'health}}{31}\protected@file@percent }
\newlabel{Features}{{V.21}{31}}
\@writefile{lof}{\contentsline {figure}{\numberline {V.22}{\ignorespaces Statechart Diagram Melihat Halaman \textit  {Knowledge Base} \textit  {website} D'health}}{31}\protected@file@percent }
\newlabel{PMK}{{V.22}{31}}
\@writefile{lof}{\contentsline {figure}{\numberline {V.23}{\ignorespaces Statechart Diagram Melihat Halaman Kontak \textit  {website} D'health}}{32}\protected@file@percent }
\newlabel{Contact}{{V.23}{32}}
\@writefile{lof}{\contentsline {figure}{\numberline {V.24}{\ignorespaces Perancangan Antar Muka Halaman Home \textit  {website} D'health}}{32}\protected@file@percent }
\newlabel{HomePages}{{V.24}{32}}
\@writefile{lof}{\contentsline {figure}{\numberline {V.25}{\ignorespaces Perancangan Antar Muka Halaman Produk \textit  {website} D'health}}{33}\protected@file@percent }
\newlabel{ProductPages}{{V.25}{33}}
\@writefile{lof}{\contentsline {figure}{\numberline {V.26}{\ignorespaces Perancangan Antar Muka Halaman Fitur \textit  {website} D'health}}{33}\protected@file@percent }
\newlabel{FeturesPages}{{V.26}{33}}
\@writefile{lof}{\contentsline {figure}{\numberline {V.27}{\ignorespaces Perancangan Antar Muka Halaman \textit  {Knowledge Base} \textit  {website} D'health}}{34}\protected@file@percent }
\newlabel{KnowledgeBasePage}{{V.27}{34}}
\@writefile{lof}{\contentsline {figure}{\numberline {V.28}{\ignorespaces Perancangan Antar Muka Halaman Kontak \textit  {website} D'health}}{34}\protected@file@percent }
\newlabel{ContactPage}{{V.28}{34}}
\@setckpt{section/chapter5}{
\setcounter{page}{35}
\setcounter{equation}{0}
\setcounter{enumi}{5}
\setcounter{enumii}{0}
\setcounter{enumiii}{0}
\setcounter{enumiv}{0}
\setcounter{footnote}{0}
\setcounter{mpfootnote}{0}
\setcounter{part}{0}
\setcounter{chapter}{5}
\setcounter{section}{2}
\setcounter{subsection}{7}
\setcounter{subsubsection}{5}
\setcounter{paragraph}{0}
\setcounter{subparagraph}{0}
\setcounter{figure}{28}
\setcounter{table}{9}
}
